…
``` r
#looking at the data that results from this code, the analyst's code returns 12 rows of data (8 for Rwanda, 8 for Afghanistan). 
#when I run the code below: 

gapminder %>% 
  filter (country =="Rwanda" | country == "Afghanistan")
```

    ## # A tibble: 24 x 6
    ##    country     continent  year lifeExp      pop gdpPercap
    ##    <fctr>      <fctr>    <int>   <dbl>    <int>     <dbl>
    ##  1 Afghanistan Asia       1952    28.8  8425333       779
    ##  2 Afghanistan Asia       1957    30.3  9240934       821
    ##  3 Afghanistan Asia       1962    32.0 10267083       853
    ##  4 Afghanistan Asia       1967    34.0 11537966       836
    ##  5 Afghanistan Asia       1972    36.1 13079460       740
    ##  6 Afghanistan Asia       1977    38.4 14880372       786
    ##  7 Afghanistan Asia       1982    39.9 12881816       978
    ##  8 Afghanistan Asia       1987    40.8 13867957       852
    ##  9 Afghanistan Asia       1992    41.7 16317921       649
    ## 10 Afghanistan Asia       1997    41.8 22227415       635
    ## # ... with 14 more rows
…
#filter(gapminder, country == c("Rwanda", "Afghanistan", "Norway", "China", "Japan")) 

#The reason for this is because it must be able to fully cycle through the combined list, we cannot divide 5 into the number of rows of data in gapminder. 


#conclude: 
#a correct way to run the code is: 
gapminder %>% 
  filter (country =="Rwanda" | country == "Afghanistan")
```

    ## # A tibble: 24 x 6
    ##    country     continent  year lifeExp      pop gdpPercap
    ##    <fctr>      <fctr>    <int>   <dbl>    <int>     <dbl>
    ##  1 Afghanistan Asia       1952    28.8  8425333       779
    ##  2 Afghanistan Asia       1957    30.3  9240934       821
    ##  3 Afghanistan Asia       1962    32.0 10267083       853
    ##  4 Afghanistan Asia       1967    34.0 11537966       836
    ##  5 Afghanistan Asia       1972    36.1 13079460       740
    ##  6 Afghanistan Asia       1977    38.4 14880372       786
    ##  7 Afghanistan Asia       1982    39.9 12881816       978
    ##  8 Afghanistan Asia       1987    40.8 13867957       852
    ##  9 Afghanistan Asia       1992    41.7 16317921       649
    ## 10 Afghanistan Asia       1997    41.8 22227415       635
    ## # ... with 14 more rows
